Fitting the meta-d’ model
…
To get a better idea of what kind of datasets the hmetad
package is designed for, we can start by simulating one (see
help('sim_metad') for a description of the data simulation
function):

library(tidyverse)
library(tidybayes)
library(hmetad)

d <- sim_metad(
  N_trials = 1000, dprime = .75, c = -.5, log_M = -1,
  c2_0 = c(.25, .75, 1), c2_1 = c(.5, 1, 1.25)
)

#> # A tibble: 1,000 × 4
#> # Groups:   stimulus, response, confidence [16]
#>    trial stimulus response confidence
#>    <int>    <int>    <int>      <int>
#>  1     1        0        0          1
#>  2     2        0        0          1
#>  3     3        0        0          1
#>  4     4        0        0          1
#>  5     5        0        0          1
#>  6     6        0        0          1
#>  7     7        0        0          1
#>  8     8        0        0          1
#>  9     9        0        0          1
#> 10    10        0        0          1
#> # ℹ 990 more rows
…
If you would like to convert joint response data into separate type 1
and type 2 responses, you can use the corresponding functions
type1_response and type2_response. For
example, if instead we had a dataset that looked like this:

#> # A tibble: 1,000 × 2
#>    trial joint_response
#>    <int>          <dbl>
#>  1     1              4
#>  2     2              4
#>  3     3              4
#>  4     4              4
#>  5     5              4
#>  6     6              4
#>  7     7              4
#>  8     8              4
#>  9     9              4
#> 10    10              4
#> # ℹ 990 more rows

Then we could convert our joint response like so:

d.joint_response |>
  mutate(
    response = type1_response(joint_response, K = 4),
    confidence = type2_response(joint_response, K = 4)
  )
#> # A tibble: 1,000 × 4
#>    trial joint_response response confidence
#>    <int>          <dbl>    <int>      <dbl>
#>  1     1              4        0          1
#>  2     2              4        0          1
#>  3     3              4        0          1
#>  4     4              4        0          1
#>  5     5              4        0          1
#>  6     6              4        0          1
#>  7     7              4        0          1
#>  8     8              4        0          1
#>  9     9              4        0          1
#> 10    10              4        0          1
#> # ℹ 990 more rows

Similarly, you can also convert the separate responses into a joint
response:

d |>
  mutate(joint_response = joint_response(response, confidence, K = 4))
#> # A tibble: 1,000 × 5
#> # Groups:   stimulus, response, confidence [16]
#>    trial stimulus response confidence joint_response
#>    <int>    <int>    <int>      <int>          <dbl>
#>  1     1        0        0          1              4
#>  2     2        0        0          1              4
#>  3     3        0        0          1              4
#>  4     4        0        0          1              4
#>  5     5        0        0          1              4
#>  6     6        0        0          1              4
#>  7     7        0        0          1              4
#>  8     8        0        0          1              4
#>  9     9        0        0          1              4
#> 10    10        0        0          1              4
#> # ℹ 990 more rows
…
Parameter estimates

First, it is often useful to extract the posterior draws of the model
parameters, which we can do with linpred_draws_metad (which
is a wrapper around tidybayes::linpred_draws):

draws.metad <- tibble(.row = 1) |>
  add_linpred_draws_metad(m)

#> # A tibble: 4,000 × 15
#> # Groups:   .row [1]
#>     .row .chain .iteration .draw     M dprime      c meta_dprime meta_c
#>    <int>  <int>      <int> <int> <dbl>  <dbl>  <dbl>       <dbl>  <dbl>
#>  1     1     NA         NA     1 0.131  0.560 -0.504      0.0734 -0.504
#>  2     1     NA         NA     2 0.526  0.743 -0.538      0.391  -0.504
#>  3     1     NA         NA     3 0.436  0.778 -0.543      0.339  -0.504
#>  4     1     NA         NA     4 0.550  0.517 -0.482      0.284  -0.504
#>  5     1     NA         NA     5 0.257  0.801 -0.525      0.206  -0.504
#>  6     1     NA         NA     6 0.617  0.491 -0.496      0.303  -0.504
#>  7     1     NA         NA     7 0.126  0.767 -0.525      0.0964 -0.504
#>  8     1     NA         NA     8 0.685  0.607 -0.557      0.416  -0.504
#>  9     1     NA         NA     9 0.228  0.693 -0.442      0.158  -0.504
#> 10     1     NA         NA    10 0.522  0.646 -0.504      0.337  -0.504
#> # ℹ 3,990 more rows
#> # ℹ 6 more variables: meta_c2_0_1 <dbl>, meta_c2_0_2 <dbl>, meta_c2_0_3 <dbl>,
#> #   meta_c2_1_1 <dbl>, meta_c2_1_2 <dbl>, meta_c2_1_3 <dbl>

This tibble has a separate row for every posterior
sample and a separate column for every model parameter. This format is
useful for some purposes, but it will often be useful to pivot it so
that we have a separate row for each model parameter and posterior
sample:

draws.metad <- tibble(.row = 1) |>
  add_linpred_draws_metad(m, pivot_longer = TRUE)

#> # A tibble: 44,000 × 6
#> # Groups:   .row, .variable [11]
#>     .row .chain .iteration .draw .variable    .value
#>    <int>  <int>      <int> <int> <chr>         <dbl>
#>  1     1     NA         NA     1 M            0.131 
#>  2     1     NA         NA     1 dprime       0.560 
#>  3     1     NA         NA     1 c           -0.504 
#>  4     1     NA         NA     1 meta_dprime  0.0734
#>  5     1     NA         NA     1 meta_c      -0.504 
#>  6     1     NA         NA     1 meta_c2_0_1 -0.726 
#>  7     1     NA         NA     1 meta_c2_0_2 -1.37  
#>  8     1     NA         NA     1 meta_c2_0_3 -2.44  
#>  9     1     NA         NA     1 meta_c2_1_1 -0.0857
#> 10     1     NA         NA     1 meta_c2_1_2  0.888 
#> # ℹ 43,990 more rows
…
Posterior predictions

One way to evaluate model fit is to perform a posterior
predictive check: to simulate data from the model’s posterior and
compare our simulated and actual data. We can do this using the function
predicted_draws_metad (which is a wrapper around
tidybayes::predicted_draws):

draws.predicted <- predicted_draws_metad(m, d.summary)

#> # A tibble: 64,000 × 12
#> # Groups:   .row, N_0, N_1, N, stimulus, joint_response, response, confidence
#> #   [16]
#>     .row   N_0   N_1 N[,"N_0_1"] stimulus joint_response response confidence
#>    <int> <int> <int>       <int>    <int>          <int>    <int>      <dbl>
#>  1     1   500   500           5        0              1        0          4
#>  2     1   500   500           5        0              1        0          4
#>  3     1   500   500           5        0              1        0          4
#>  4     1   500   500           5        0              1        0          4
#>  5     1   500   500           5        0              1        0          4
#>  6     1   500   500           5        0              1        0          4
#>  7     1   500   500           5        0              1        0          4
#>  8     1   500   500           5        0              1        0          4
#>  9     1   500   500           5        0              1        0          4
#> 10     1   500   500           5        0              1        0          4
#> # ℹ 63,990 more rows
#> # ℹ 5 more variables: N[2:16] <int>, .prediction <int>, .chain <int>,
#> #   .iteration <int>, .draw <int>
…
Posterior expectations

Usually it will be simpler to compare response probabilities rather
than raw response counts. To do this, we can use the same workflow as
above but using epred_draws_metad (which is a wrapper
around tidybayes::epred_draws):

draws.epred <- epred_draws_metad(m, newdata = tibble(.row = 1))

#> # A tibble: 64,000 × 9
#> # Groups:   .row, stimulus, joint_response, response, confidence [16]
#>     .row stimulus joint_response response confidence  .epred .chain .iteration
#>    <int>    <int>          <int>    <int>      <dbl>   <dbl>  <int>      <int>
#>  1     1        0              1        0          4 0.0104      NA         NA
#>  2     1        0              1        0          4 0.00778     NA         NA
#>  3     1        0              1        0          4 0.00720     NA         NA
#>  4     1        0              1        0          4 0.0116      NA         NA
#>  5     1        0              1        0          4 0.00806     NA         NA
#>  6     1        0              1        0          4 0.0137      NA         NA
#>  7     1        0              1        0          4 0.00728     NA         NA
#>  8     1        0              1        0          4 0.0151      NA         NA
#>  9     1        0              1        0          4 0.0110      NA         NA
#> 10     1        0              1        0          4 0.00594     NA         NA
#> # ℹ 63,990 more rows
#> # ℹ 1 more variable: .draw <int>
…
Pseudo Type 1 ROC

To obtain type 1 performance as a pseudo-type 1 ROC, we can use
add_roc1_draws:

draws.roc1 <- tibble(.row = 1) |>
  add_roc1_draws(m)

#> # A tibble: 28,000 × 9
#> # Groups:   .row, joint_response, response, confidence [7]
#>     .row joint_response response confidence .chain .iteration .draw  p_fa p_hit
#>    <int>          <int>    <int>      <dbl>  <int>      <int> <int> <dbl> <dbl>
#>  1     1              1        0          4     NA         NA     1 0.990 0.995
#>  2     1              1        0          4     NA         NA     2 0.992 0.998
#>  3     1              1        0          4     NA         NA     3 0.993 0.998
#>  4     1              1        0          4     NA         NA     4 0.988 0.996
#>  5     1              1        0          4     NA         NA     5 0.992 0.998
#>  6     1              1        0          4     NA         NA     6 0.986 0.995
#>  7     1              1        0          4     NA         NA     7 0.993 0.997
#>  8     1              1        0          4     NA         NA     8 0.985 0.996
#>  9     1              1        0          4     NA         NA     9 0.989 0.996
#> 10     1              1        0          4     NA         NA    10 0.994 0.999
#> # ℹ 27,990 more rows
…
Type 2 ROC

Finally, to plot type 2 performance as a type 2 ROC, we can use
add_roc2_draws:

draws.roc2 <- tibble(.row = 1) |>
  add_roc2_draws(m)

#> # A tibble: 24,000 × 8
#> # Groups:   .row, response, confidence [6]
#>     .row response confidence .chain .iteration .draw p_hit2   p_fa2
#>    <int>    <int>      <dbl>  <int>      <int> <int>  <dbl>   <dbl>
#>  1     1        0          4     NA         NA     1 0.0253 0.0224 
#>  2     1        0          4     NA         NA     2 0.0179 0.00883
#>  3     1        0          4     NA         NA     3 0.0164 0.00883
#>  4     1        0          4     NA         NA     4 0.0281 0.0176 
#>  5     1        0          4     NA         NA     5 0.0179 0.0124 
#>  6     1        0          4     NA         NA     6 0.0341 0.0211 
#>  7     1        0          4     NA         NA     7 0.0164 0.0138 
#>  8     1        0          4     NA         NA     8 0.0378 0.0198 
#>  9     1        0          4     NA         NA     9 0.0238 0.0182 
#> 10     1        0          4     NA         NA    10 0.0139 0.00733
#> # ℹ 23,990 more rows
…
